# Blender MTL File: 'TreesBlockout.blend'
# Material Count: 1

newmtl 2241cd328ba248a59ee72caef7e9ed62_Light
Ns 94.117647
Ka 1.000000 1.000000 1.000000
Kd 0.800000 0.800000 0.800000
Ks 0.500000 0.500000 0.500000
Ke 0.000000 0.000000 0.000000
Ni 1.000000
d 0.000000
illum 0
map_Kd Tilt Brush\\GGJForest\\Light.png
map_d Tilt Brush\\GGJForest\\Light.png
