%YAML 1.1
%TAG !u! tag:unity3d.com,2011:
--- !u!114 &11400000
MonoBehaviour:
  m_ObjectHideFlags: 0
  m_PrefabParentObject: {fileID: 0}
  m_PrefabInternal: {fileID: 0}
  m_GameObject: {fileID: 0}
  m_Enabled: 1
  m_EditorHideFlags: 0
  m_Script: {fileID: 11500000, guid: 2050e21461a55d94693174b9a2e21349, type: 3}
  m_Name: Scatter
  m_EditorClassIdentifier: 
  animation: 2
  movement: 2
  moveSpeed: 2
  turnSpeed: 3
  entrySound: 0
  timeToComplete: 1
  energyCost: 2
