%YAML 1.1
%TAG !u! tag:unity3d.com,2011:
--- !u!114 &11400000
MonoBehaviour:
  m_ObjectHideFlags: 0
  m_CorrespondingSourceObject: {fileID: 0}
  m_PrefabInstance: {fileID: 0}
  m_PrefabAsset: {fileID: 0}
  m_GameObject: {fileID: 0}
  m_Enabled: 1
  m_EditorHideFlags: 0
  m_Script: {fileID: 11500000, guid: 227bbfdf9863ab8408ef90ccc4039276, type: 3}
  m_Name: __actions_buggy
  m_EditorClassIdentifier: 
  allActions:
  - {fileID: 11400000, guid: cc5bcb68dd8ec884791bd46cdd8e6c8c, type: 2}
  - {fileID: 11400000, guid: 2fd35624069679945a825c72bd5a158f, type: 2}
  - {fileID: 11400000, guid: e211872da0a22d14daf4f389e5011420, type: 2}
  - {fileID: 11400000, guid: 1d6297cc26d90bb43a5d8da6ac027f8a, type: 2}
  nonVisualInActions:
  - {fileID: 11400000, guid: cc5bcb68dd8ec884791bd46cdd8e6c8c, type: 2}
  - {fileID: 11400000, guid: 2fd35624069679945a825c72bd5a158f, type: 2}
  - {fileID: 11400000, guid: e211872da0a22d14daf4f389e5011420, type: 2}
  - {fileID: 11400000, guid: 1d6297cc26d90bb43a5d8da6ac027f8a, type: 2}
  visualActions: []
  poseActions: []
  skeletonActions: []
  outActionArray: []
  fullPath: /actions/buggy
  usage: single
  inActions: {fileID: 11400000, guid: 262961acec3f90749ac6202823e5887b, type: 2}
