%YAML 1.1
%TAG !u! tag:unity3d.com,2011:
--- !u!114 &11400000
MonoBehaviour:
  m_ObjectHideFlags: 0
  m_PrefabParentObject: {fileID: 0}
  m_PrefabInternal: {fileID: 0}
  m_GameObject: {fileID: 0}
  m_Enabled: 1
  m_EditorHideFlags: 0
  m_Script: {fileID: 11500000, guid: 8e1843229e2814c4387c2917f05e6a58, type: 3}
  m_Name: Move Left
  m_EditorClassIdentifier: 
  keys: 04010000
  activeValue: {x: -1, y: 0}
  currentValue: {x: 0, y: 0}
