%YAML 1.1
%TAG !u! tag:unity3d.com,2011:
--- !u!114 &11400000
MonoBehaviour:
  m_ObjectHideFlags: 0
  m_PrefabParentObject: {fileID: 0}
  m_PrefabInternal: {fileID: 0}
  m_GameObject: {fileID: 0}
  m_Enabled: 1
  m_EditorHideFlags: 0
  m_Script: {fileID: 11500000, guid: 576bb24219bfdec40b290f0f21672bf9, type: 3}
  m_Name: Slow Down
  m_EditorClassIdentifier: 
  keys: 03010000
  gameEvent: {fileID: 0}
  currentValue: 0
